<?xml version="1.0" encoding="utf-8"?>
<!-- Generator: Adobe Illustrator 24.1.0, SVG Export Plug-In . SVG Version: 6.00 Build 0)  -->
<svg version="1.1" id="レイヤー_1" xmlns="http://www.w3.org/2000/svg" xmlns:xlink="http://www.w3.org/1999/xlink" x="0px"
	 y="0px" viewBox="0 0 48 48" style="enable-background:new 0 0 48 48;" xml:space="preserve">
<style type="text/css">
	.st0{fill:#3E3A39;}
</style>
<path class="st0" d="M47.4,43.1C46.9,42,46,41,45,40.6c-0.3-1-1-1.6-1.8-1.9c-0.1-0.3-0.3-0.6-0.5-0.8c-0.6-0.8-1.5-1.2-2.5-1.3
	c-0.3-0.4-0.6-0.8-1.1-1c-0.2-1.6-1.3-2.9-2.8-3.1c-0.3-0.3-0.5-0.6-0.9-0.9c-0.2-0.7-0.6-1.4-1.1-2c-0.5-0.4-1-0.7-1.5-0.8
	c-0.3-0.4-0.6-0.8-0.9-1.1c-0.3-1-1-2-1.9-2.6c-0.4-1.1-1.3-1.9-2.5-2.3c-0.2-0.3-0.4-0.6-0.7-0.9c-0.5-0.5-1.1-0.8-1.7-1
	c-0.2-0.3-0.5-0.5-0.8-0.7c-0.1-1.1-0.9-2-1.9-2.6c-0.2-0.5-0.6-1.1-1.1-1.5c-0.2-0.2-0.5-0.3-0.8-0.5c-0.4-1.4-1.7-2.2-3.1-2.3
	c-0.2-0.3-0.5-0.6-0.8-0.8c0-0.1,0-0.2,0-0.4c-0.2-1.6-1.4-2.6-2.8-2.8c-0.4-0.6-1-1-1.8-1.1c-0.2-0.5-0.5-0.9-0.9-1.2
	c-0.2-1.5-1.3-2.7-2.7-3.2C7.8,3.2,7.1,2.7,6.4,2.5C6,1.2,5,0.1,3.6,0.1C1.7,0,0.1,1.8,0,3.7c0,1.4,0.9,2.5,2.2,2.9
	c0,0.1,0,0.1,0,0.2c0.3,1,0.9,1.7,1.7,2.1c0.4,1,1.2,1.7,2.4,1.9c0.3,1,1.2,1.7,2.2,1.9c0.3,0.5,0.7,0.9,1.2,1.1
	c0.4,1.3,1.3,2.4,2.5,2.7c0.3,0.5,0.8,1,1.4,1.3c0.3,1.2,1.1,2.2,2.1,2.7c0.3,0.6,0.6,1.1,1.1,1.4c0.3,0.2,0.6,0.4,1,0.5
	c0.4,1,1.2,1.7,2.2,1.9c0.1,0,0.2,0,0.3,0c0.2,0.3,0.3,0.5,0.5,0.7c0,0.8,0.3,1.5,0.8,2c0.3,0.3,0.8,0.6,1.2,0.8
	c0.3,0.9,0.9,1.8,1.8,2.2c0.4,0.8,1.1,1.4,2.1,1.7c0,0.1,0.1,0.2,0.1,0.3c0.3,0.6,0.7,1.1,1.3,1.4c0.2,0.5,0.5,1.1,1,1.5
	c0.4,0.4,1,0.7,1.5,1c0.4,0.9,1.1,1.5,2,1.7c0.5,0.8,1.3,1.4,2.3,1.6c0.2,0.4,0.4,0.8,0.7,1.1c0.1,0.8,0.4,1.6,0.9,2.2
	c0.7,0.9,1.5,1.4,2.4,1.4c0.4,0.4,0.8,0.7,1.3,0.9c0,0.4,0.1,0.7,0.3,1c0.8,1.9,3,2.5,5,1.7C47.5,46.8,48.2,45,47.4,43.1z"/>
<path class="st0" d="M47.5,5c-0.5,1.1-1.4,2.1-2.4,2.5c-0.3,1-1,1.6-1.8,1.9c-0.1,0.3-0.3,0.6-0.5,0.8c-0.6,0.8-1.5,1.2-2.5,1.3
	c-0.3,0.4-0.6,0.8-1.1,1c-0.2,1.6-1.3,2.9-2.8,3.1c-0.3,0.3-0.5,0.6-0.9,0.9c-0.2,0.7-0.6,1.4-1.1,2c-0.5,0.4-1,0.7-1.5,0.8
	c-0.3,0.4-0.6,0.8-0.9,1.1c-0.3,1-1,2-1.9,2.6c-0.4,1.1-1.3,1.9-2.5,2.3c-0.2,0.3-0.4,0.6-0.7,0.9c-0.5,0.5-1.1,0.8-1.7,1
	c-0.2,0.3-0.5,0.5-0.8,0.7c-0.1,1.1-0.9,2-1.9,2.6c-0.2,0.5-0.6,1.1-1.1,1.5c-0.2,0.2-0.5,0.3-0.8,0.5c-0.4,1.4-1.7,2.2-3.1,2.3
	c-0.2,0.3-0.5,0.6-0.8,0.8c0,0.1,0,0.2,0,0.4c-0.2,1.6-1.4,2.6-2.8,2.8c-0.4,0.6-1,1-1.8,1.1c-0.2,0.5-0.5,0.9-0.9,1.2
	c-0.2,1.5-1.3,2.7-2.7,3.2c-0.5,0.6-1.2,1.1-1.9,1.3c-0.4,1.3-1.4,2.4-2.8,2.4c-1.8,0.1-3.5-1.7-3.6-3.6c0-1.4,0.9-2.5,2.2-2.9
	c0-0.1,0-0.1,0-0.2c0.3-1,0.9-1.7,1.7-2.1c0.4-1,1.2-1.7,2.4-1.9c0.3-1,1.2-1.7,2.2-1.9C9,35,9.4,34.6,9.9,34.3
	c0.4-1.3,1.3-2.4,2.5-2.7c0.3-0.5,0.8-1,1.4-1.3c0.3-1.2,1.1-2.2,2.1-2.7c0.3-0.6,0.6-1.1,1.1-1.4c0.3-0.2,0.6-0.4,1-0.5
	c0.4-1,1.2-1.7,2.2-1.9c0.1,0,0.2,0,0.3,0c0.2-0.3,0.3-0.5,0.5-0.7c0-0.8,0.3-1.5,0.8-2c0.3-0.3,0.8-0.6,1.2-0.8
	c0.3-0.9,0.9-1.8,1.8-2.2c0.4-0.8,1.1-1.4,2.1-1.7c0-0.1,0.1-0.2,0.1-0.3c0.3-0.6,0.7-1.1,1.3-1.4c0.2-0.5,0.5-1.1,1-1.5
	c0.4-0.4,1-0.7,1.5-1c0.4-0.9,1.1-1.5,2-1.7c0.5-0.8,1.3-1.4,2.3-1.6c0.2-0.4,0.4-0.8,0.7-1.1c0.1-0.8,0.4-1.6,0.9-2.2
	c0.7-0.9,1.5-1.4,2.4-1.4c0.4-0.4,0.8-0.7,1.3-0.9c0-0.4,0.1-0.7,0.3-1c0.8-1.9,3-2.5,5-1.7C47.6,1.2,48.4,3,47.5,5z"/>
</svg>
